<?xml version="1.0" standalone="no"?>
<!DOCTYPE svg PUBLIC "-//W3C//DTD SVG 20010904//EN"
 "http://www.w3.org/TR/2001/REC-SVG-20010904/DTD/svg10.dtd">
<svg version="1.0" xmlns="http://www.w3.org/2000/svg"
 width="57.000000pt" height="57.000000pt" viewBox="0 0 57.000000 57.000000"
 preserveAspectRatio="xMidYMid meet">

<g transform="translate(0.000000,57.000000) scale(0.100000,-0.100000)"
fill="#000000" stroke="none">
<path d="M132 437 c-72 -73 -132 -140 -132 -148 0 -24 26 -42 50 -34 19 6 20
3 20 -112 0 -79 4 -123 12 -131 7 -7 38 -12 70 -12 l57 0 3 88 3 87 65 0 65 0
5 -85 5 -85 60 -3 c81 -4 85 3 85 144 0 111 0 111 23 107 28 -6 51 19 43 45
-10 30 -261 272 -282 272 -11 0 -73 -54 -152 -133z"/>
</g>
</svg>
